 'ALA'  'A'  '10' 5
 'GLN'  'A'  '11' 0
 'GLU'  'A'  '12' 3
 'ARG'  'A'  '13' 201
 'ALYS'  'A'  '14' 283
 'BLYS'  'A'  '14' 266
 'ALA'  'A'  '15' 102
 'TRP'  'A'  '16' 404
 'ARG'  'A'  '17' 967
 'ALYS'  'A'  '18' 651
 'BLYS'  'A'  '18' 580
 'ASP'  'A'  '19' 417
 'AHIS'  'A'  '20' 316
 'BHIS'  'A'  '20' 315
 'PRO'  'A'  '21' 220
 'PHE'  'A'  '22' 1025
 'GLY'  'A'  '23' 231
 'PHE'  'A'  '24' 224
 'VAL'  'A'  '25' 219
 'ALA'  'A'  '26' 71
 'VAL'  'A'  '27' 124
 'PRO'  'A'  '28' 42
 'THR'  'A'  '29' 0
 'LYS'  'A'  '30' 23
 'MET'  'A'  '36' 29
 'LEU'  'A'  '38' 1
 'TRP'  'A'  '41' 17
 'GLU'  'A'  '42' 28
 'CYS'  'A'  '43' 15
 'ALA'  'A'  '44' 45
 'ILE'  'A'  '45' 5
 'PRO'  'A'  '46' 60
 'GLY'  'A'  '47' 10
 'LYS'  'A'  '48' 15
 'LYS'  'A'  '49' 127
 'GLY'  'A'  '50' 1
 'AGLU'  'A'  '54' 7
 'GLY'  'A'  '55' 9
 'GLY'  'A'  '56' 4
 'LEU'  'A'  '57' 82
 'ALYS'  'A'  '59' 38
 'BLYS'  'A'  '59' 28
 'ALYS'  'A'  '110' 1
 'BLYS'  'A'  '110' 14
 'LEU'  'A'  '114' 0
 'GLN'  'A'  '117' 5
 'ALA'  'A'  '156' 3
 'PRO'  'A'  '157' 129
