ubc9_2PE6Out.txt
[" 'ALA'", " 'A'", " '10'", " 'GLU'", " 'B'", " '83']"]
[" 'ARG'", " 'A'", " '13'", " 'GLU'", " 'B'", " '67']"]
[" 'ARG'", " 'A'", " '13'", " 'GLU'", " 'B'", " '83']"]
[" 'ARG'", " 'A'", " '13'", " 'ASP'", " 'B'", " '86']"]
[" 'ARG'", " 'A'", " '13'", " 'GLU'", " 'B'", " '84']"]
[" 'ARG'", " 'A'", " '13'", " 'GLU'", " 'B'", " '85']"]
[" 'ARG'", " 'A'", " '13'", " 'PHE'", " 'B'", " '66']"]
[" 'ARG'", " 'A'", " '13'", " 'GLY'", " 'B'", " '81']"]
[" 'ARG'", " 'A'", " '13'", " 'LEU'", " 'B'", " '80']"]
[" 'ARG'", " 'A'", " '13'", " 'MET'", " 'B'", " '82']"]
[" 'ARG'", " 'A'", " '13'", " 'GLY'", " 'B'", " '68']"]
[" 'ARG'", " 'A'", " '13'", " 'GLN'", " 'B'", " '69']"]
[" 'ARG'", " 'A'", " '13'", " 'GLU'", " 'B'", " '79']"]
[" 'LYS'", " 'A'", " '14'", " 'GLU'", " 'B'", " '67']"]
[" 'LYS'", " 'A'", " '14'", " 'GLU'", " 'B'", " '83']"]
[" 'LYS'", " 'A'", " '14'", " 'GLU'", " 'B'", " '84']"]
[" 'LYS'", " 'A'", " '14'", " 'ASP'", " 'B'", " '86']"]
[" 'LYS'", " 'A'", " '14'", " 'GLU'", " 'B'", " '85']"]
[" 'LYS'", " 'A'", " '14'", " 'LYS'", " 'B'", " '25']"]
[" 'LYS'", " 'A'", " '14'", " 'VAL'", " 'B'", " '87']"]
[" 'ALA'", " 'A'", " '15'", " 'GLU'", " 'B'", " '83']"]
[" 'ALA'", " 'A'", " '15'", " 'GLU'", " 'B'", " '84']"]
[" 'ALA'", " 'A'", " '15'", " 'GLU'", " 'B'", " '85']"]
[" 'ALA'", " 'A'", " '15'", " 'ASP'", " 'B'", " '86']"]
[" 'ALA'", " 'A'", " '15'", " 'VAL'", " 'B'", " '87']"]
[" 'ALA'", " 'A'", " '15'", " 'LYS'", " 'B'", " '25']"]
[" 'TRP'", " 'A'", " '16'", " 'GLU'", " 'B'", " '67']"]
[" 'TRP'", " 'A'", " '16'", " 'GLU'", " 'B'", " '84']"]
[" 'TRP'", " 'A'", " '16'", " 'GLU'", " 'B'", " '85']"]
[" 'TRP'", " 'A'", " '16'", " 'ASP'", " 'B'", " '86']"]
[" 'TRP'", " 'A'", " '16'", " 'VAL'", " 'B'", " '87']"]
[" 'TRP'", " 'A'", " '16'", " 'LYS'", " 'B'", " '25']"]
[" 'TRP'", " 'A'", " '16'", " 'PHE'", " 'B'", " '66']"]
[" 'TRP'", " 'A'", " '16'", " 'ILE'", " 'B'", " '27']"]
[" 'TRP'", " 'A'", " '16'", " 'ILE'", " 'B'", " '88']"]
[" 'TRP'", " 'A'", " '16'", " 'GLU'", " 'B'", " '89']"]
[" 'TRP'", " 'A'", " '16'", " 'GLY'", " 'B'", " '68']"]
[" 'ARG'", " 'A'", " '17'", " 'LYS'", " 'B'", " '25']"]
[" 'ARG'", " 'A'", " '17'", " 'PHE'", " 'B'", " '66']"]
[" 'ARG'", " 'A'", " '17'", " 'GLU'", " 'B'", " '67']"]
[" 'ARG'", " 'A'", " '17'", " 'GLU'", " 'B'", " '83']"]
[" 'ARG'", " 'A'", " '17'", " 'GLU'", " 'B'", " '84']"]
[" 'ARG'", " 'A'", " '17'", " 'GLU'", " 'B'", " '85']"]
[" 'ARG'", " 'A'", " '17'", " 'ASP'", " 'B'", " '86']"]
[" 'ARG'", " 'A'", " '17'", " 'VAL'", " 'B'", " '87']"]
[" 'ARG'", " 'A'", " '17'", " 'GLY'", " 'B'", " '81']"]
[" 'ARG'", " 'A'", " '17'", " 'MET'", " 'B'", " '82']"]
[" 'ARG'", " 'A'", " '17'", " 'ILE'", " 'B'", " '88']"]
[" 'ARG'", " 'A'", " '17'", " 'LYS'", " 'B'", " '23']"]
[" 'ARG'", " 'A'", " '17'", " 'LEU'", " 'B'", " '24']"]
[" 'ARG'", " 'A'", " '17'", " 'ILE'", " 'B'", " '27']"]
[" 'ARG'", " 'A'", " '17'", " 'VAL'", " 'B'", " '26']"]
[" 'ARG'", " 'A'", " '17'", " 'GLU'", " 'B'", " '33']"]
[" 'ARG'", " 'A'", " '17'", " 'GLU'", " 'B'", " '89']"]
[" 'ARG'", " 'A'", " '17'", " 'LEU'", " 'B'", " '80']"]
[" 'ARG'", " 'A'", " '17'", " 'PRO'", " 'B'", " '77']"]
[" 'ARG'", " 'A'", " '17'", " 'ILE'", " 'B'", " '22']"]
[" 'ARG'", " 'A'", " '17'", " 'MET'", " 'B'", " '40']"]
[" 'ARG'", " 'A'", " '17'", " 'LYS'", " 'B'", " '78']"]
[" 'ARG'", " 'A'", " '17'", " 'GLU'", " 'B'", " '79']"]
[" 'ARG'", " 'A'", " '17'", " 'GLY'", " 'B'", " '68']"]
[" 'ARG'", " 'A'", " '17'", " 'THR'", " 'B'", " '76']"]
[" 'LYS'", " 'A'", " '18'", " 'LYS'", " 'B'", " '23']"]
[" 'LYS'", " 'A'", " '18'", " 'LEU'", " 'B'", " '24']"]
[" 'LYS'", " 'A'", " '18'", " 'LYS'", " 'B'", " '25']"]
[" 'LYS'", " 'A'", " '18'", " 'ILE'", " 'B'", " '27']"]
[" 'LYS'", " 'A'", " '18'", " 'PHE'", " 'B'", " '66']"]
[" 'LYS'", " 'A'", " '18'", " 'GLU'", " 'B'", " '67']"]
[" 'LYS'", " 'A'", " '18'", " 'MET'", " 'B'", " '82']"]
[" 'LYS'", " 'A'", " '18'", " 'GLU'", " 'B'", " '83']"]
[" 'LYS'", " 'A'", " '18'", " 'GLU'", " 'B'", " '84']"]
[" 'LYS'", " 'A'", " '18'", " 'GLU'", " 'B'", " '85']"]
[" 'LYS'", " 'A'", " '18'", " 'ASP'", " 'B'", " '86']"]
[" 'LYS'", " 'A'", " '18'", " 'VAL'", " 'B'", " '87']"]
[" 'LYS'", " 'A'", " '18'", " 'ILE'", " 'B'", " '88']"]
[" 'LYS'", " 'A'", " '18'", " 'GLU'", " 'B'", " '33']"]
[" 'LYS'", " 'A'", " '18'", " 'VAL'", " 'B'", " '26']"]
[" 'LYS'", " 'A'", " '18'", " 'HIS'", " 'B'", " '35']"]
[" 'LYS'", " 'A'", " '18'", " 'GLU'", " 'B'", " '89']"]
[" 'ASP'", " 'A'", " '19'", " 'LYS'", " 'B'", " '25']"]
[" 'ASP'", " 'A'", " '19'", " 'ILE'", " 'B'", " '27']"]
[" 'ASP'", " 'A'", " '19'", " 'GLU'", " 'B'", " '33']"]
[" 'ASP'", " 'A'", " '19'", " 'GLU'", " 'B'", " '67']"]
[" 'ASP'", " 'A'", " '19'", " 'GLU'", " 'B'", " '83']"]
[" 'ASP'", " 'A'", " '19'", " 'GLU'", " 'B'", " '84']"]
[" 'ASP'", " 'A'", " '19'", " 'GLU'", " 'B'", " '85']"]
[" 'ASP'", " 'A'", " '19'", " 'ASP'", " 'B'", " '86']"]
[" 'ASP'", " 'A'", " '19'", " 'VAL'", " 'B'", " '87']"]
[" 'ASP'", " 'A'", " '19'", " 'ILE'", " 'B'", " '88']"]
[" 'ASP'", " 'A'", " '19'", " 'GLU'", " 'B'", " '89']"]
[" 'HIS'", " 'A'", " '20'", " 'LYS'", " 'B'", " '25']"]
[" 'HIS'", " 'A'", " '20'", " 'ILE'", " 'B'", " '27']"]
[" 'HIS'", " 'A'", " '20'", " 'GLU'", " 'B'", " '33']"]
[" 'HIS'", " 'A'", " '20'", " 'GLU'", " 'B'", " '67']"]
[" 'HIS'", " 'A'", " '20'", " 'GLU'", " 'B'", " '85']"]
[" 'HIS'", " 'A'", " '20'", " 'ASP'", " 'B'", " '86']"]
[" 'HIS'", " 'A'", " '20'", " 'VAL'", " 'B'", " '87']"]
[" 'HIS'", " 'A'", " '20'", " 'ILE'", " 'B'", " '88']"]
[" 'HIS'", " 'A'", " '20'", " 'GLU'", " 'B'", " '89']"]
[" 'HIS'", " 'A'", " '20'", " 'TYR'", " 'B'", " '91']"]
[" 'HIS'", " 'A'", " '20'", " 'GLY'", " 'B'", " '28']"]
[" 'HIS'", " 'A'", " '20'", " 'SER'", " 'B'", " '31']"]
[" 'HIS'", " 'A'", " '20'", " 'PHE'", " 'B'", " '66']"]
[" 'HIS'", " 'A'", " '20'", " 'GLY'", " 'B'", " '68']"]
[" 'HIS'", " 'A'", " '20'", " 'LEU'", " 'B'", " '65']"]
[" 'HIS'", " 'A'", " '20'", " 'VAL'", " 'B'", " '90']"]
[" 'PRO'", " 'A'", " '21'", " 'LYS'", " 'B'", " '25']"]
[" 'PRO'", " 'A'", " '21'", " 'ILE'", " 'B'", " '27']"]
[" 'PRO'", " 'A'", " '21'", " 'VAL'", " 'B'", " '87']"]
[" 'PRO'", " 'A'", " '21'", " 'GLU'", " 'B'", " '89']"]
[" 'PRO'", " 'A'", " '21'", " 'TYR'", " 'B'", " '91']"]
[" 'PRO'", " 'A'", " '21'", " 'GLY'", " 'B'", " '28']"]
[" 'PRO'", " 'A'", " '21'", " 'SER'", " 'B'", " '31']"]
[" 'PRO'", " 'A'", " '21'", " 'GLN'", " 'B'", " '29']"]
[" 'PRO'", " 'A'", " '21'", " 'GLU'", " 'B'", " '67']"]
[" 'PRO'", " 'A'", " '21'", " 'GLY'", " 'B'", " '68']"]
[" 'PRO'", " 'A'", " '21'", " 'ILE'", " 'B'", " '88']"]
[" 'PHE'", " 'A'", " '22'", " 'ILE'", " 'B'", " '27']"]
[" 'PHE'", " 'A'", " '22'", " 'GLY'", " 'B'", " '28']"]
[" 'PHE'", " 'A'", " '22'", " 'GLN'", " 'B'", " '29']"]
[" 'PHE'", " 'A'", " '22'", " 'ASP'", " 'B'", " '30']"]
[" 'PHE'", " 'A'", " '22'", " 'SER'", " 'B'", " '31']"]
[" 'PHE'", " 'A'", " '22'", " 'VAL'", " 'B'", " '87']"]
[" 'PHE'", " 'A'", " '22'", " 'ILE'", " 'B'", " '88']"]
[" 'PHE'", " 'A'", " '22'", " 'GLU'", " 'B'", " '89']"]
[" 'PHE'", " 'A'", " '22'", " 'VAL'", " 'B'", " '90']"]
[" 'PHE'", " 'A'", " '22'", " 'TYR'", " 'B'", " '91']"]
[" 'PHE'", " 'A'", " '22'", " 'LEU'", " 'B'", " '65']"]
[" 'PHE'", " 'A'", " '22'", " 'VAL'", " 'B'", " '26']"]
[" 'PHE'", " 'A'", " '22'", " 'SER'", " 'B'", " '32']"]
[" 'PHE'", " 'A'", " '22'", " 'LYS'", " 'B'", " '25']"]
[" 'PHE'", " 'A'", " '22'", " 'GLU'", " 'B'", " '33']"]
[" 'PHE'", " 'A'", " '22'", " 'TYR'", " 'B'", " '51']"]
[" 'PHE'", " 'A'", " '22'", " 'ARG'", " 'B'", " '63']"]
[" 'PHE'", " 'A'", " '22'", " 'GLN'", " 'B'", " '92']"]
[" 'PHE'", " 'A'", " '22'", " 'PHE'", " 'B'", " '64']"]
[" 'PHE'", " 'A'", " '22'", " 'PHE'", " 'B'", " '66']"]
[" 'PHE'", " 'A'", " '22'", " 'LEU'", " 'B'", " '62']"]
[" 'GLY'", " 'A'", " '23'", " 'ILE'", " 'B'", " '27']"]
[" 'GLY'", " 'A'", " '23'", " 'GLY'", " 'B'", " '28']"]
[" 'GLY'", " 'A'", " '23'", " 'GLN'", " 'B'", " '29']"]
[" 'GLY'", " 'A'", " '23'", " 'LEU'", " 'B'", " '65']"]
[" 'GLY'", " 'A'", " '23'", " 'PHE'", " 'B'", " '66']"]
[" 'GLY'", " 'A'", " '23'", " 'GLU'", " 'B'", " '67']"]
[" 'GLY'", " 'A'", " '23'", " 'GLY'", " 'B'", " '68']"]
[" 'GLY'", " 'A'", " '23'", " 'VAL'", " 'B'", " '87']"]
[" 'GLY'", " 'A'", " '23'", " 'ILE'", " 'B'", " '88']"]
[" 'GLY'", " 'A'", " '23'", " 'GLU'", " 'B'", " '89']"]
[" 'GLY'", " 'A'", " '23'", " 'VAL'", " 'B'", " '90']"]
[" 'GLY'", " 'A'", " '23'", " 'TYR'", " 'B'", " '91']"]
[" 'GLY'", " 'A'", " '23'", " 'ARG'", " 'B'", " '63']"]
[" 'GLY'", " 'A'", " '23'", " 'GLN'", " 'B'", " '69']"]
[" 'PHE'", " 'A'", " '24'", " 'GLN'", " 'B'", " '29']"]
[" 'PHE'", " 'A'", " '24'", " 'LEU'", " 'B'", " '65']"]
[" 'PHE'", " 'A'", " '24'", " 'PHE'", " 'B'", " '66']"]
[" 'PHE'", " 'A'", " '24'", " 'GLU'", " 'B'", " '67']"]
[" 'PHE'", " 'A'", " '24'", " 'GLY'", " 'B'", " '68']"]
[" 'PHE'", " 'A'", " '24'", " 'VAL'", " 'B'", " '87']"]
[" 'PHE'", " 'A'", " '24'", " 'GLU'", " 'B'", " '89']"]
[" 'PHE'", " 'A'", " '24'", " 'TYR'", " 'B'", " '91']"]
[" 'PHE'", " 'A'", " '24'", " 'GLN'", " 'B'", " '69']"]
[" 'PHE'", " 'A'", " '24'", " 'ILE'", " 'B'", " '88']"]
[" 'VAL'", " 'A'", " '25'", " 'LEU'", " 'B'", " '65']"]
[" 'VAL'", " 'A'", " '25'", " 'PHE'", " 'B'", " '66']"]
[" 'VAL'", " 'A'", " '25'", " 'GLU'", " 'B'", " '67']"]
[" 'VAL'", " 'A'", " '25'", " 'GLY'", " 'B'", " '68']"]
[" 'VAL'", " 'A'", " '25'", " 'GLN'", " 'B'", " '69']"]
[" 'VAL'", " 'A'", " '25'", " 'GLU'", " 'B'", " '89']"]
[" 'VAL'", " 'A'", " '25'", " 'TYR'", " 'B'", " '91']"]
[" 'VAL'", " 'A'", " '25'", " 'ARG'", " 'B'", " '70']"]
[" 'ALA'", " 'A'", " '26'", " 'PHE'", " 'B'", " '66']"]
[" 'ALA'", " 'A'", " '26'", " 'GLU'", " 'B'", " '67']"]
[" 'ALA'", " 'A'", " '26'", " 'GLY'", " 'B'", " '68']"]
[" 'ALA'", " 'A'", " '26'", " 'GLN'", " 'B'", " '69']"]
[" 'ALA'", " 'A'", " '26'", " 'GLU'", " 'B'", " '89']"]
[" 'ALA'", " 'A'", " '26'", " 'ASP'", " 'B'", " '86']"]
[" 'VAL'", " 'A'", " '27'", " 'PHE'", " 'B'", " '66']"]
[" 'VAL'", " 'A'", " '27'", " 'GLU'", " 'B'", " '67']"]
[" 'VAL'", " 'A'", " '27'", " 'GLY'", " 'B'", " '68']"]
[" 'VAL'", " 'A'", " '27'", " 'GLN'", " 'B'", " '69']"]
[" 'VAL'", " 'A'", " '27'", " 'LEU'", " 'B'", " '80']"]
[" 'VAL'", " 'A'", " '27'", " 'ASP'", " 'B'", " '86']"]
[" 'VAL'", " 'A'", " '27'", " 'VAL'", " 'B'", " '87']"]
[" 'VAL'", " 'A'", " '27'", " 'GLU'", " 'B'", " '89']"]
[" 'PRO'", " 'A'", " '28'", " 'GLU'", " 'B'", " '67']"]
[" 'PRO'", " 'A'", " '28'", " 'GLN'", " 'B'", " '69']"]
[" 'THR'", " 'A'", " '29'", " 'GLU'", " 'B'", " '67']"]
[" 'THR'", " 'A'", " '29'", " 'GLN'", " 'B'", " '69']"]
[" 'LYS'", " 'A'", " '30'", " 'GLU'", " 'B'", " '67']"]
[" 'LYS'", " 'A'", " '30'", " 'GLN'", " 'B'", " '69']"]
[" 'LYS'", " 'A'", " '30'", " 'GLU'", " 'B'", " '79']"]
[" 'LYS'", " 'A'", " '30'", " 'LEU'", " 'B'", " '80']"]
[" 'LYS'", " 'A'", " '30'", " 'GLY'", " 'B'", " '81']"]
[" 'LYS'", " 'A'", " '30'", " 'GLU'", " 'B'", " '83']"]
[" 'MET'", " 'A'", " '36'", " 'GLU'", " 'B'", " '67']"]
[" 'MET'", " 'A'", " '36'", " 'GLU'", " 'B'", " '83']"]
[" 'MET'", " 'A'", " '36'", " 'GLY'", " 'B'", " '81']"]
[" 'MET'", " 'A'", " '36'", " 'LEU'", " 'B'", " '80']"]
[" 'MET'", " 'A'", " '36'", " 'MET'", " 'B'", " '82']"]
[" 'TRP'", " 'A'", " '41'", " 'GLU'", " 'B'", " '67']"]
[" 'GLU'", " 'A'", " '42'", " 'GLU'", " 'B'", " '67']"]
[" 'GLU'", " 'A'", " '42'", " 'GLN'", " 'B'", " '69']"]
[" 'GLU'", " 'A'", " '42'", " 'GLY'", " 'B'", " '68']"]
[" 'CYS'", " 'A'", " '43'", " 'GLU'", " 'B'", " '67']"]
[" 'CYS'", " 'A'", " '43'", " 'GLY'", " 'B'", " '68']"]
[" 'CYS'", " 'A'", " '43'", " 'GLN'", " 'B'", " '69']"]
[" 'ALA'", " 'A'", " '44'", " 'GLU'", " 'B'", " '67']"]
[" 'ALA'", " 'A'", " '44'", " 'GLY'", " 'B'", " '68']"]
[" 'ALA'", " 'A'", " '44'", " 'GLN'", " 'B'", " '69']"]
[" 'ALA'", " 'A'", " '44'", " 'GLU'", " 'B'", " '89']"]
[" 'ALA'", " 'A'", " '44'", " 'TYR'", " 'B'", " '91']"]
[" 'ALA'", " 'A'", " '44'", " 'LEU'", " 'B'", " '65']"]
[" 'ILE'", " 'A'", " '45'", " 'GLY'", " 'B'", " '68']"]
[" 'ILE'", " 'A'", " '45'", " 'TYR'", " 'B'", " '91']"]
[" 'ILE'", " 'A'", " '45'", " 'GLU'", " 'B'", " '89']"]
[" 'PRO'", " 'A'", " '46'", " 'GLU'", " 'B'", " '89']"]
[" 'PRO'", " 'A'", " '46'", " 'TYR'", " 'B'", " '91']"]
[" 'PRO'", " 'A'", " '46'", " 'GLN'", " 'B'", " '29']"]
[" 'PRO'", " 'A'", " '46'", " 'LEU'", " 'B'", " '65']"]
[" 'GLY'", " 'A'", " '47'", " 'GLN'", " 'B'", " '29']"]
[" 'GLY'", " 'A'", " '47'", " 'TYR'", " 'B'", " '91']"]
[" 'LYS'", " 'A'", " '48'", " 'GLN'", " 'B'", " '29']"]
[" 'LYS'", " 'A'", " '49'", " 'GLN'", " 'B'", " '29']"]
[" 'LYS'", " 'A'", " '49'", " 'ASP'", " 'B'", " '30']"]
[" 'LYS'", " 'A'", " '49'", " 'TYR'", " 'B'", " '91']"]
[" 'LYS'", " 'A'", " '49'", " 'GLY'", " 'B'", " '28']"]
[" 'LYS'", " 'A'", " '49'", " 'GLN'", " 'B'", " '92']"]
[" 'GLY'", " 'A'", " '50'", " 'GLN'", " 'B'", " '29']"]
[" 'GLU'", " 'A'", " '54'", " 'GLN'", " 'B'", " '29']"]
[" 'GLU'", " 'A'", " '54'", " 'GLN'", " 'B'", " '94']"]
[" 'GLY'", " 'A'", " '55'", " 'GLN'", " 'B'", " '29']"]
[" 'GLY'", " 'A'", " '55'", " 'TYR'", " 'B'", " '91']"]
[" 'GLY'", " 'A'", " '55'", " 'ARG'", " 'B'", " '63']"]
[" 'GLY'", " 'A'", " '55'", " 'GLN'", " 'B'", " '94']"]
[" 'GLY'", " 'A'", " '56'", " 'TYR'", " 'B'", " '91']"]
[" 'LEU'", " 'A'", " '57'", " 'TYR'", " 'B'", " '91']"]
[" 'LEU'", " 'A'", " '57'", " 'LEU'", " 'B'", " '65']"]
[" 'LEU'", " 'A'", " '57'", " 'ARG'", " 'B'", " '63']"]
[" 'LEU'", " 'A'", " '57'", " 'GLY'", " 'B'", " '68']"]
[" 'LEU'", " 'A'", " '57'", " 'GLU'", " 'B'", " '89']"]
[" 'LEU'", " 'A'", " '57'", " 'GLU'", " 'B'", " '67']"]
[" 'LEU'", " 'A'", " '57'", " 'GLN'", " 'B'", " '69']"]
[" 'LYS'", " 'A'", " '59'", " 'GLU'", " 'B'", " '67']"]
[" 'LYS'", " 'A'", " '59'", " 'GLY'", " 'B'", " '68']"]
[" 'LYS'", " 'A'", " '59'", " 'GLN'", " 'B'", " '69']"]
[" 'GLN'", " 'A'", " '117'", " 'GLN'", " 'B'", " '29']"]
[" 'LYS'", " 'A'", " '153'", " 'GLN'", " 'B'", " '94']"]
[" 'PHE'", " 'A'", " '155'", " 'ARG'", " 'B'", " '63']"]
[" 'ALA'", " 'A'", " '156'", " 'ARG'", " 'B'", " '63']"]
[" 'ALA'", " 'A'", " '156'", " 'GLN'", " 'B'", " '94']"]
[" 'ALA'", " 'A'", " '156'", " 'LEU'", " 'B'", " '65']"]
[" 'PRO'", " 'A'", " '157'", " 'ARG'", " 'B'", " '63']"]
[" 'PRO'", " 'A'", " '157'", " 'LEU'", " 'B'", " '65']"]
[" 'PRO'", " 'A'", " '157'", " 'GLY'", " 'B'", " '68']"]
[" 'PRO'", " 'A'", " '157'", " 'TYR'", " 'B'", " '91']"]
[" 'PRO'", " 'A'", " '157'", " 'GLN'", " 'B'", " '94']"]
[" 'PRO'", " 'A'", " '157'", " 'ARG'", " 'B'", " '70']"]
[" 'PRO'", " 'A'", " '157'", " 'GLU'", " 'B'", " '93']"]
[" 'PRO'", " 'A'", " '157'", " 'GLN'", " 'B'", " '92']"]
[" 'PRO'", " 'A'", " '157'", " 'GLN'", " 'B'", " '69']"]
[" 'PRO'", " 'A'", " '157'", " 'GLU'", " 'B'", " '89']"]
[" 'SER'", " 'A'", " '158'", " 'ARG'", " 'B'", " '63']"]
[" 'SER'", " 'A'", " '158'", " 'LEU'", " 'B'", " '65']"]
[" 'SER'", " 'A'", " '158'", " 'GLY'", " 'B'", " '68']"]
[" 'SER'", " 'A'", " '158'", " 'ARG'", " 'B'", " '70']"]
[" 'SER'", " 'A'", " '158'", " 'GLU'", " 'B'", " '93']"]
[" 'SER'", " 'A'", " '158'", " 'GLN'", " 'B'", " '94']"]
[" 'SER'", " 'A'", " '158'", " 'GLN'", " 'B'", " '69']"]
[" 'SER'", " 'A'", " '158'", " 'PHE'", " 'B'", " '64']"]
[" 'SER'", " 'A'", " '158'", " 'TYR'", " 'B'", " '91']"]
[" 'SER'", " 'A'", " '158'", " 'GLN'", " 'B'", " '92']"]
