ubc9_2O25Out.txt
[" 'GLU'", " 'A'", " '15'", " 'ASN'", " 'B'", " '137']"]
[" 'GLU'", " 'A'", " '15'", " 'GLU'", " 'B'", " '139']"]
[" 'GLU'", " 'A'", " '15'", " 'GLU'", " 'B'", " '161']"]
[" 'GLU'", " 'A'", " '15'", " 'GLN'", " 'B'", " '143']"]
[" 'GLU'", " 'A'", " '15'", " 'SER'", " 'B'", " '159']"]
[" 'LYS'", " 'A'", " '18'", " 'ASN'", " 'B'", " '137']"]
[" 'LYS'", " 'A'", " '18'", " 'GLN'", " 'B'", " '136']"]
[" 'LYS'", " 'A'", " '18'", " 'GLU'", " 'B'", " '139']"]
[" 'LYS'", " 'A'", " '18'", " 'MET'", " 'B'", " '140']"]
[" 'LYS'", " 'A'", " '18'", " 'PRO'", " 'B'", " '138']"]
[" 'SER'", " 'A'", " '19'", " 'ASN'", " 'B'", " '137']"]
[" 'SER'", " 'A'", " '19'", " 'MET'", " 'B'", " '140']"]
[" 'SER'", " 'A'", " '19'", " 'GLU'", " 'B'", " '139']"]
[" 'SER'", " 'A'", " '19'", " 'GLU'", " 'B'", " '161']"]
[" 'SER'", " 'A'", " '19'", " 'SER'", " 'B'", " '187']"]
[" 'SER'", " 'A'", " '19'", " 'LYS'", " 'B'", " '165']"]
[" 'SER'", " 'A'", " '19'", " 'ASP'", " 'B'", " '189']"]
[" 'GLU'", " 'A'", " '20'", " 'ASN'", " 'B'", " '137']"]
[" 'GLU'", " 'A'", " '20'", " 'MET'", " 'B'", " '140']"]
[" 'GLU'", " 'A'", " '20'", " 'GLU'", " 'B'", " '161']"]
[" 'GLU'", " 'A'", " '20'", " 'TYR'", " 'B'", " '162']"]
[" 'GLU'", " 'A'", " '20'", " 'LYS'", " 'B'", " '165']"]
[" 'GLU'", " 'A'", " '20'", " 'LYS'", " 'B'", " '186']"]
[" 'GLU'", " 'A'", " '20'", " 'SER'", " 'B'", " '187']"]
[" 'GLU'", " 'A'", " '20'", " 'TRP'", " 'B'", " '188']"]
[" 'GLU'", " 'A'", " '20'", " 'ASP'", " 'B'", " '189']"]
[" 'GLU'", " 'A'", " '20'", " 'THR'", " 'B'", " '192']"]
[" 'GLU'", " 'A'", " '20'", " 'VAL'", " 'B'", " '190']"]
[" 'GLU'", " 'A'", " '20'", " 'GLU'", " 'B'", " '191']"]
[" 'GLU'", " 'A'", " '20'", " 'GLN'", " 'B'", " '133']"]
[" 'GLU'", " 'A'", " '20'", " 'LEU'", " 'B'", " '183']"]
[" 'GLU'", " 'A'", " '20'", " 'GLN'", " 'B'", " '136']"]
[" 'GLU'", " 'A'", " '20'", " 'GLU'", " 'B'", " '139']"]
[" 'GLU'", " 'A'", " '20'", " 'THR'", " 'B'", " '144']"]
[" 'GLU'", " 'A'", " '20'", " 'SER'", " 'B'", " '184']"]
[" 'GLU'", " 'A'", " '20'", " 'SER'", " 'B'", " '185']"]
[" 'GLU'", " 'A'", " '20'", " 'PHE'", " 'B'", " '141']"]
[" 'GLU'", " 'A'", " '20'", " 'PRO'", " 'B'", " '138']"]
[" 'GLU'", " 'A'", " '21'", " 'ASN'", " 'B'", " '137']"]
[" 'GLU'", " 'A'", " '21'", " 'MET'", " 'B'", " '140']"]
[" 'GLU'", " 'A'", " '21'", " 'GLU'", " 'B'", " '161']"]
[" 'GLU'", " 'A'", " '21'", " 'LYS'", " 'B'", " '165']"]
[" 'GLU'", " 'A'", " '21'", " 'LYS'", " 'B'", " '186']"]
[" 'GLU'", " 'A'", " '21'", " 'SER'", " 'B'", " '187']"]
[" 'GLU'", " 'A'", " '21'", " 'TRP'", " 'B'", " '188']"]
[" 'GLU'", " 'A'", " '21'", " 'ASP'", " 'B'", " '189']"]
[" 'GLU'", " 'A'", " '21'", " 'VAL'", " 'B'", " '190']"]
[" 'GLU'", " 'A'", " '21'", " 'THR'", " 'B'", " '192']"]
[" 'GLU'", " 'A'", " '21'", " 'GLU'", " 'B'", " '191']"]
[" 'GLU'", " 'A'", " '21'", " 'TYR'", " 'B'", " '162']"]
[" 'GLU'", " 'A'", " '21'", " 'SER'", " 'B'", " '159']"]
[" 'THR'", " 'A'", " '22'", " 'SER'", " 'B'", " '187']"]
[" 'THR'", " 'A'", " '22'", " 'ASP'", " 'B'", " '189']"]
[" 'SER'", " 'A'", " '23'", " 'ASN'", " 'B'", " '137']"]
[" 'SER'", " 'A'", " '23'", " 'ASP'", " 'B'", " '189']"]
[" 'SER'", " 'A'", " '23'", " 'SER'", " 'B'", " '187']"]
[" 'SER'", " 'A'", " '23'", " 'THR'", " 'B'", " '192']"]
[" 'SER'", " 'A'", " '23'", " 'GLN'", " 'B'", " '136']"]
[" 'SER'", " 'A'", " '23'", " 'MET'", " 'B'", " '140']"]
[" 'SER'", " 'A'", " '23'", " 'LYS'", " 'B'", " '186']"]
[" 'LYS'", " 'A'", " '24'", " 'SER'", " 'B'", " '187']"]
[" 'LYS'", " 'A'", " '24'", " 'ASP'", " 'B'", " '189']"]
[" 'LYS'", " 'A'", " '24'", " 'GLU'", " 'B'", " '191']"]
[" 'LYS'", " 'A'", " '24'", " 'THR'", " 'B'", " '192']"]
[" 'LYS'", " 'A'", " '24'", " 'LYS'", " 'B'", " '186']"]
[" 'LYS'", " 'A'", " '24'", " 'LYS'", " 'B'", " '165']"]
[" 'LYS'", " 'A'", " '24'", " 'TRP'", " 'B'", " '188']"]
[" 'LYS'", " 'A'", " '24'", " 'VAL'", " 'B'", " '190']"]
[" 'LYS'", " 'A'", " '24'", " 'MET'", " 'B'", " '140']"]
[" 'LYS'", " 'A'", " '24'", " 'ALA'", " 'B'", " '193']"]
[" 'LYS'", " 'A'", " '24'", " 'GLU'", " 'B'", " '195']"]
[" 'LYS'", " 'A'", " '24'", " 'ASN'", " 'B'", " '137']"]
[" 'LYS'", " 'A'", " '24'", " 'LEU'", " 'B'", " '183']"]
[" 'LYS'", " 'A'", " '24'", " 'SER'", " 'B'", " '185']"]
[" 'LYS'", " 'A'", " '24'", " 'GLN'", " 'B'", " '133']"]
[" 'LYS'", " 'A'", " '24'", " 'GLN'", " 'B'", " '136']"]
[" 'LYS'", " 'A'", " '24'", " 'SER'", " 'B'", " '184']"]
[" 'ASN'", " 'A'", " '25'", " 'ASP'", " 'B'", " '189']"]
[" 'ASN'", " 'A'", " '25'", " 'GLU'", " 'B'", " '191']"]
[" 'GLN'", " 'A'", " '26'", " 'ASP'", " 'B'", " '189']"]
[" 'GLN'", " 'A'", " '26'", " 'GLU'", " 'B'", " '191']"]
[" 'GLN'", " 'A'", " '26'", " 'LYS'", " 'B'", " '165']"]
[" 'GLN'", " 'A'", " '26'", " 'VAL'", " 'B'", " '190']"]
[" 'GLN'", " 'A'", " '26'", " 'SER'", " 'B'", " '187']"]
[" 'GLN'", " 'A'", " '26'", " 'TRP'", " 'B'", " '188']"]
[" 'GLN'", " 'A'", " '26'", " 'THR'", " 'B'", " '192']"]
[" 'GLN'", " 'A'", " '26'", " 'LYS'", " 'B'", " '186']"]
[" 'GLN'", " 'A'", " '26'", " 'ALA'", " 'B'", " '193']"]
[" 'ILE'", " 'A'", " '27'", " 'ASP'", " 'B'", " '189']"]
[" 'ILE'", " 'A'", " '27'", " 'GLU'", " 'B'", " '161']"]
[" 'ALA'", " 'A'", " '44'", " 'GLU'", " 'B'", " '191']"]
[" 'ALA'", " 'A'", " '44'", " 'ASP'", " 'B'", " '189']"]
[" 'GLY'", " 'A'", " '45'", " 'GLU'", " 'B'", " '191']"]
[" 'PRO'", " 'A'", " '46'", " 'GLU'", " 'B'", " '191']"]
[" 'PRO'", " 'A'", " '46'", " 'VAL'", " 'B'", " '190']"]
[" 'PRO'", " 'A'", " '47'", " 'ASP'", " 'B'", " '189']"]
[" 'PRO'", " 'A'", " '47'", " 'VAL'", " 'B'", " '190']"]
[" 'PRO'", " 'A'", " '47'", " 'GLU'", " 'B'", " '191']"]
[" 'PRO'", " 'A'", " '47'", " 'THR'", " 'B'", " '192']"]
[" 'PRO'", " 'A'", " '47'", " 'MET'", " 'B'", " '172']"]
[" 'PRO'", " 'A'", " '47'", " 'THR'", " 'B'", " '194']"]
[" 'ASP'", " 'A'", " '48'", " 'MET'", " 'B'", " '172']"]
[" 'ASP'", " 'A'", " '48'", " 'VAL'", " 'B'", " '190']"]
[" 'ASP'", " 'A'", " '48'", " 'GLU'", " 'B'", " '191']"]
[" 'ASP'", " 'A'", " '48'", " 'THR'", " 'B'", " '194']"]
[" 'ASP'", " 'A'", " '48'", " 'LEU'", " 'B'", " '198']"]
[" 'ASP'", " 'A'", " '48'", " 'LEU'", " 'B'", " '169']"]
[" 'ASP'", " 'A'", " '48'", " 'PHE'", " 'B'", " '174']"]
[" 'ASP'", " 'A'", " '48'", " 'THR'", " 'B'", " '192']"]
[" 'ASP'", " 'A'", " '48'", " 'GLU'", " 'B'", " '195']"]
[" 'GLU'", " 'A'", " '52'", " 'GLU'", " 'B'", " '191']"]
[" 'GLY'", " 'A'", " '53'", " 'GLU'", " 'B'", " '191']"]
[" 'ALA'", " 'A'", " '103'", " 'GLU'", " 'B'", " '161']"]
[" 'MET'", " 'A'", " '104'", " 'GLU'", " 'B'", " '161']"]
[" 'THR'", " 'A'", " '105'", " 'GLU'", " 'B'", " '161']"]
[" 'LEU'", " 'A'", " '106'", " 'GLU'", " 'B'", " '161']"]
[" 'ARG'", " 'A'", " '107'", " 'GLU'", " 'B'", " '161']"]
[" 'ARG'", " 'A'", " '107'", " 'LYS'", " 'B'", " '165']"]
[" 'ARG'", " 'A'", " '107'", " 'SER'", " 'B'", " '159']"]
[" 'ARG'", " 'A'", " '107'", " 'TYR'", " 'B'", " '162']"]
[" 'ARG'", " 'A'", " '107'", " 'MET'", " 'B'", " '140']"]
[" 'ARG'", " 'A'", " '107'", " 'SER'", " 'B'", " '187']"]
[" 'ARG'", " 'A'", " '107'", " 'TRP'", " 'B'", " '188']"]
[" 'ARG'", " 'A'", " '107'", " 'GLU'", " 'B'", " '139']"]
[" 'ARG'", " 'A'", " '107'", " 'GLN'", " 'B'", " '143']"]
[" 'ARG'", " 'A'", " '107'", " 'PRO'", " 'B'", " '160']"]
[" 'ARG'", " 'A'", " '107'", " 'ASN'", " 'B'", " '137']"]
[" 'ARG'", " 'A'", " '107'", " 'ASP'", " 'B'", " '189']"]
[" 'THR'", " 'A'", " '108'", " 'GLU'", " 'B'", " '161']"]
[" 'THR'", " 'A'", " '108'", " 'LYS'", " 'B'", " '164']"]
[" 'THR'", " 'A'", " '108'", " 'PRO'", " 'B'", " '160']"]
[" 'THR'", " 'A'", " '108'", " 'SER'", " 'B'", " '159']"]
[" 'VAL'", " 'A'", " '109'", " 'GLU'", " 'B'", " '161']"]
[" 'LEU'", " 'A'", " '110'", " 'GLU'", " 'B'", " '161']"]
[" 'LEU'", " 'A'", " '111'", " 'GLU'", " 'B'", " '161']"]
[" 'LEU'", " 'A'", " '111'", " 'LYS'", " 'B'", " '164']"]
[" 'LEU'", " 'A'", " '111'", " 'LYS'", " 'B'", " '165']"]
[" 'LEU'", " 'A'", " '111'", " 'TRP'", " 'B'", " '188']"]
[" 'LEU'", " 'A'", " '111'", " 'SER'", " 'B'", " '159']"]
[" 'LEU'", " 'A'", " '111'", " 'TYR'", " 'B'", " '162']"]
[" 'LEU'", " 'A'", " '111'", " 'ASP'", " 'B'", " '189']"]
[" 'LEU'", " 'A'", " '111'", " 'VAL'", " 'B'", " '190']"]
[" 'SER'", " 'A'", " '112'", " 'GLU'", " 'B'", " '161']"]
[" 'SER'", " 'A'", " '112'", " 'LYS'", " 'B'", " '164']"]
[" 'GLN'", " 'A'", " '114'", " 'LYS'", " 'B'", " '164']"]
[" 'GLN'", " 'A'", " '114'", " 'ASP'", " 'B'", " '189']"]
[" 'GLN'", " 'A'", " '114'", " 'GLU'", " 'B'", " '191']"]
[" 'GLN'", " 'A'", " '114'", " 'LYS'", " 'B'", " '165']"]
[" 'GLN'", " 'A'", " '114'", " 'VAL'", " 'B'", " '190']"]
[" 'ALA'", " 'A'", " '115'", " 'LYS'", " 'B'", " '164']"]
[" 'ALA'", " 'A'", " '115'", " 'ASN'", " 'B'", " '168']"]
[" 'LEU'", " 'A'", " '116'", " 'LYS'", " 'B'", " '164']"]
[" 'ALA'", " 'A'", " '118'", " 'LYS'", " 'B'", " '164']"]
[" 'ALA'", " 'A'", " '118'", " 'ASN'", " 'B'", " '168']"]
[" 'ALA'", " 'A'", " '118'", " 'MET'", " 'B'", " '172']"]
[" 'ALA'", " 'A'", " '118'", " 'VAL'", " 'B'", " '190']"]
[" 'ALA'", " 'A'", " '119'", " 'LYS'", " 'B'", " '164']"]
[" 'ALA'", " 'A'", " '119'", " 'ASN'", " 'B'", " '168']"]
